%YAML 1.1
%TAG !u! tag:unity3d.com,2011:
--- !u!1045 &1
EditorBuildSettings:
  m_ObjectHideFlags: 0
  serializedVersion: 2
  m_Scenes:
  - enabled: 1
    path: Assets/Pong-Fighter/Scenes/MainMenu.unity
    guid: 9d16e225a4074bf4fb7df7983c1db91b
  - enabled: 1
    path: Assets/Pong-Fighter/Scenes/Level.unity
    guid: 2cda990e2423bbf4892e6590ba056729
  - enabled: 1
    path: Assets/Pong-Fighter/Scenes/GameOver.unity
    guid: 502f814e429f8b84babe7b511405cfd3
  m_configObjects: {}
